<?xml version="1.0" encoding="utf-8"?>
<!-- Generator: Adobe Illustrator 16.0.4, SVG Export Plug-In . SVG Version: 6.00 Build 0)  -->
<!DOCTYPE svg PUBLIC "-//W3C//DTD SVG 1.1//EN" "http://www.w3.org/Graphics/SVG/1.1/DTD/svg11.dtd">
<svg version="1.1" id="Layer_1" xmlns="http://www.w3.org/2000/svg" xmlns:xlink="http://www.w3.org/1999/xlink" x="0px" y="0px"
	 width="1200px" height="600px" viewBox="0.5 900.5 1200 600" enable-background="new 0.5 900.5 1200 600" xml:space="preserve">
<g>
	<path fill="#333333" d="M50.5,1259.141c0,19.23,1.339,27.271,5.375,34.434c7.143,12.514,20.115,17.881,45.154,17.881
		c12.518,0,20.452-1.662,35.068-7.81c0.96-0.411,1.603-1.358,1.603-2.397v-23.005c0-1.722-1.658-2.958-3.311-2.49
		c-9.922,2.779-15.604,3.515-25.31,3.515c-13.415,0-16.995-3.574-16.995-16.555v-146.757c0-1.441,1.165-2.597,2.596-2.597h38.643
		c1.43,0,2.585-1.156,2.585-2.595v-24.327c0-1.418-1.146-2.573-2.567-2.585H92.145v-45.979L50.5,1083.853V1259.141z"/>
	<path fill="#333333" d="M234.397,1168.459c0,1.43-1.156,2.597-2.586,2.597h-33.269c-1.438,0-2.599-1.167-2.599-2.597v-45.699
		c0-10.295,4.481-14.321,16.999-14.321c17.44,0,21.454,3.586,21.454,18.789V1168.459z M207.126,1076.697
		c-40.694,0-53.658,9.395-53.658,38.002v146.229c0,38.457,12.963,50.077,54.103,50.077c13.422,0,36.227-0.896,41.139-1.328
		c20.124-2.684,26.829-12.52,26.829-39.357v-44.814c0-1.43-1.159-2.586-2.587-2.586h-35.958c-1.427,0-2.596,1.156-2.596,2.586
		v37.207c0,9.844-5.804,14.762-18.325,14.762c-14.762,0-20.128-4.471-20.128-16.546v-53.301c0-1.433,1.16-2.591,2.599-2.591h74.409
		c1.428,0,2.587-1.156,2.587-2.595v-87.743C275.539,1086.986,257.214,1076.697,207.126,1076.697"/>
	<path fill="#333333" d="M533.249,1081.166c-13.856,0-27.271,2.687-33.087,6.261c-2.09,1.299-3.719,3.217-5.066,6.095
		c-0.978,2.078-3.871,2.007-4.741-0.113c-1.583-3.819-3.736-6.208-7.18-8.216c-8.053-4.468-21.477-6.711-40.698-6.711
		c-37.114,0-50.981,11.632-50.981,43.379v183.43c0,1.43,1.169,2.597,2.597,2.597h36.4c1.429,0,2.596-1.167,2.596-2.597v-176.725
		c0-13.413,5.808-20.121,18.336-20.121c5.364,0,10.726,1.796,14.753,4.915c3.574,3.139,4.922,7.607,4.922,21.023v170.907
		c0,1.43,1.156,2.597,2.587,2.597h36.398c1.438,0,2.596-1.167,2.596-2.597v-173.749c0-13.72,13.133-24.253,26.25-20.214
		c6.52,2.005,10.422,6.738,10.422,13.667v180.296c0,1.43,1.159,2.597,2.586,2.597h36.406c1.43,0,2.598-1.167,2.598-2.597v-180.296
		C590.941,1089.66,580.206,1081.166,533.249,1081.166"/>
	<path fill="#333333" d="M686.396,1261.819c0,11.28-4.716,16.755-16.094,17.737c-11.344,0.969-21.03-8.17-21.03-19.546v-131.893
		c0-10.731,5.814-16.537,16.997-16.537c13.865,0,20.127,5.355,20.127,16.987V1261.819z M701.149,1082.509
		c-8.052-2.687-17.44-3.571-43.828-3.571c-36.671,0-50.972,12.066-50.972,42.929v133.248c0,26.829,2.234,37.123,8.939,44.716
		c6.711,8.048,26.385,12.969,52.317,12.969c19.674,0,35.776-2.684,44.281-7.151c8.936-4.915,15.194-19.675,15.194-35.771v-142.654
		C727.082,1100.402,720.823,1089.22,701.149,1082.509"/>
	<path fill="#333333" d="M923.552,1261.825c0,11.632-6.258,16.546-21.012,16.546c-14.31,0-18.786-4.479-18.786-19.232v-42.479
		c0-16.103,4.477-22.357,15.65-22.357c18.786,0,24.147,4.474,24.147,19.671V1261.825z M947.253,1085.646
		c-9.832-5.377-21.908-7.607-42.487-7.607c-26.376,0-45.157,3.58-51.415,9.389c-6.711,6.255-10.294,17.437-10.294,30.412v27.803
		c0,1.438,1.167,2.598,2.597,2.598h35.512c1.431,0,2.589-1.159,2.589-2.598v-18.414c0-11.626,7.154-17.442,21.465-17.442
		c13.412,0,18.333,6.261,18.333,25.038v30.945c0,1.844-1.88,3.095-3.589,2.386c-11.054-4.581-19.314-6.049-33.081-6.049
		c-34.428,0-43.825,9.832-43.825,45.609v64.836c0,29.525,14.31,38.904,59.928,38.904c48.293,0,62.152-9.829,62.152-42.916v-131.481
		C965.137,1104.863,961.119,1093.232,947.253,1085.646"/>
	<path fill="#333333" d="M1061.34,1256.014c0,19.225-3.575,23.701-19.675,23.701c-13.416,0-18.78-5.364-18.78-20.127v-129.68
		c0-16.103,3.574-20.123,17.884-20.123c13.416,0,20.571,6.707,20.571,19.671V1256.014z M1101.674,1008.444h-36.399
		c-1.427,0-2.598,1.155-2.598,2.597v73.181c0,1.978-2.136,3.211-3.863,2.24c-10.438-5.851-19.987-7.978-35.929-7.978
		c-31.306,0-42.488,12.076-42.488,45.166v132.363c0,25.482,5.817,41.585,17,47.844c9.392,5.37,22.802,7.151,47.84,7.151
		c45.166,0,59.035-9.839,59.035-41.582v-258.386C1104.271,1009.6,1103.101,1008.444,1101.674,1008.444"/>
	<path fill="#333333" d="M1137.561,1066.296h-1.331v-3.474c0.301-0.071,0.815-0.151,1.558-0.151c1.772,0,2.585,0.741,2.585,1.855
		C1140.372,1065.783,1139.115,1066.296,1137.561,1066.296 M1140.888,1067.184v-0.143c1.475-0.444,2.514-1.484,2.514-2.812
		c0-1.186-0.515-2.145-1.179-2.662c-0.888-0.513-1.922-0.883-4.218-0.883c-1.993,0-3.545,0.144-4.659,0.37v12.117h2.812v-4.873
		h1.329c1.561,0,2.29,0.587,2.517,1.918c0.369,1.399,0.587,2.515,0.959,2.955h3.029c-0.298-0.44-0.515-1.18-0.884-3.026
		C1142.734,1068.516,1142.073,1067.627,1140.888,1067.184"/>
	<path fill="#333333" d="M1138.153,1076.501c-5.475,0-9.463-4.286-9.463-9.687c0-5.32,3.988-9.681,9.389-9.681
		c5.403,0,9.309,4.36,9.309,9.752C1147.388,1072.215,1143.482,1076.501,1138.153,1076.501 M1138.079,1054.691
		c-6.946,0-12.489,5.402-12.489,12.123c0,6.875,5.543,12.275,12.489,12.275c7.021,0,12.421-5.4,12.421-12.275
		C1150.5,1060.094,1145.1,1054.691,1138.079,1054.691"/>
	<path fill="#333333" d="M375.865,1111.691c-13.027-2.94-17.279-3.873-23.258-3.873c-12.88,0-18.868,5.525-18.868,17.947v184.98
		h-42.784v-191.421c0-30.367,14.717-43.709,49.688-43.709c13.811,0,30.635,2.868,47.026,9.814L375.865,1111.691z"/>
	<path fill="#333333" d="M828.678,1111.691c-13.025-2.94-17.279-3.873-23.257-3.873c-12.88,0-18.87,5.525-18.87,17.947v184.98
		h-42.785v-191.421c0-30.367,14.717-43.709,49.695-43.709c13.807,0,30.63,2.868,47.021,9.814L828.678,1111.691z"/>
	<path fill="#DD2321" d="M92.618,1028.229v-19.027c0-1.43-1.155-2.586-2.596-2.586H53.623c-1.428,0-2.587,1.156-2.587,2.586v65.006
		L92.618,1028.229z"/>
	<path fill="#333333" d="M179.195,1379.205l-2.904-1.123l4.115-8.266l2.2,0.895L179.195,1379.205z M173.415,1379.205l-2.904-1.123
		l4.115-8.266l2.2,0.895L173.415,1379.205z"/>
	<path fill="#333333" d="M1027.731,1369.813l2.883,1.129l-4.116,8.261l-2.198-0.906L1027.731,1369.813z M1021.946,1369.813
		l2.887,1.129l-4.116,8.261l-2.199-0.906L1021.946,1369.813z"/>
	<g>
		<path fill="#333333" d="M215.081,1386.863h-10.603l-2.758,6.015h-4.025l12.254-26.319l11.821,26.319h-4.091L215.081,1386.863z
			 M213.557,1383.352l-3.673-8.42l-3.85,8.42H213.557z"/>
		<path fill="#333333" d="M243.71,1368.113v21.252h7.283v3.513h-11.02v-24.765H243.71z"/>
		<path fill="#333333" d="M272.627,1368.113v14.917c0,2.127,0.349,3.685,1.042,4.667c1.038,1.421,2.498,2.133,4.379,2.133
			c1.893,0,3.358-0.712,4.395-2.133c0.695-0.953,1.042-2.508,1.042-4.667v-14.917h3.737v15.941c0,2.609-0.812,4.76-2.438,6.449
			c-1.828,1.883-4.074,2.823-6.736,2.823c-2.662,0-4.901-0.94-6.72-2.823c-1.625-1.689-2.438-3.84-2.438-6.449v-15.941H272.627z"/>
		<path fill="#333333" d="M307.401,1392.878l5.213-26.624l8.5,19.246l8.806-19.246l4.683,26.624h-3.833l-2.389-14.947l-7.331,16.085
			l-7.121-16.103l-2.663,14.965H307.401z"/>
		<path fill="#333333" d="M358.661,1368.113v24.765h-3.736v-24.765H358.661z"/>
		<path fill="#333333" d="M379.723,1392.878v-26.448l18.06,18.895v-17.211h3.736v26.271l-18.06-18.846v17.339H379.723z"/>
		<path fill="#333333" d="M426.267,1368.113v14.917c0,2.127,0.349,3.685,1.043,4.667c1.038,1.421,2.497,2.133,4.379,2.133
			c1.893,0,3.358-0.712,4.395-2.133c0.695-0.953,1.043-2.508,1.043-4.667v-14.917h3.736v15.941c0,2.609-0.812,4.76-2.438,6.449
			c-1.828,1.883-4.073,2.823-6.736,2.823c-2.662,0-4.901-0.94-6.72-2.823c-1.625-1.689-2.438-3.84-2.438-6.449v-15.941H426.267z"/>
		<path fill="#333333" d="M461.041,1392.878l5.213-26.624l8.5,19.246l8.807-19.246l4.683,26.624h-3.834l-2.389-14.947l-7.331,16.085
			l-7.12-16.103l-2.663,14.965H461.041z"/>
		<path fill="#333333" d="M537.515,1382.821v10.057h-3.737v-24.765h4.234c2.075,0,3.642,0.146,4.7,0.435
			c1.068,0.289,2.01,0.834,2.822,1.636c1.423,1.391,2.133,3.143,2.133,5.26c0,2.267-0.759,4.062-2.276,5.389
			c-1.519,1.325-3.566,1.989-6.143,1.989H537.515z M537.515,1379.357h1.396c3.433,0,5.148-1.319,5.148-3.962
			c0-2.556-1.77-3.833-5.308-3.833h-1.236V1379.357z"/>
		<path fill="#333333" d="M579.337,1386.863h-10.604l-2.758,6.015h-4.026l12.253-26.319l11.822,26.319h-4.09L579.337,1386.863z
			 M577.812,1383.352l-3.673-8.42l-3.852,8.42H577.812z"/>
		<path fill="#333333" d="M604.229,1392.878v-26.448l18.06,18.895v-17.211h3.738v26.271l-18.06-18.846v17.339H604.229z"/>
		<path fill="#333333" d="M660.702,1371.625h-9.928v5.951h9.639v3.512h-9.639v8.277h9.928v3.513h-13.666v-24.765h13.666V1371.625z"
			/>
		<path fill="#333333" d="M684.424,1368.113v21.252h7.28v3.513h-11.019v-24.765H684.424z"/>
		<path fill="#333333" d="M743.926,1382.324l7.667,10.554h-4.572l-7.071-10.137h-0.673v10.137h-3.738v-24.765h4.379
			c3.273,0,5.636,0.616,7.089,1.844c1.605,1.37,2.407,3.178,2.407,5.421c0,1.755-0.504,3.262-1.508,4.524
			C746.898,1381.166,745.573,1381.973,743.926,1382.324z M739.276,1379.485h1.186c3.538,0,5.308-1.353,5.308-4.057
			c0-2.535-1.722-3.804-5.162-3.804h-1.331V1379.485z"/>
		<path fill="#333333" d="M784.939,1386.863h-10.602l-2.758,6.015h-4.027l12.254-26.319l11.82,26.319h-4.09L784.939,1386.863z
			 M783.414,1383.352l-3.673-8.42l-3.848,8.42H783.414z"/>
		<path fill="#333333" d="M809.832,1392.878v-24.765h5.198c2.49,0,4.459,0.247,5.9,0.738c1.552,0.479,2.958,1.299,4.218,2.455
			c2.556,2.329,3.834,5.394,3.834,9.188c0,3.807-1.332,6.887-3.992,9.24c-1.337,1.177-2.737,1.992-4.202,2.451
			c-1.37,0.462-3.31,0.691-5.823,0.691H809.832z M813.57,1389.365h1.684c1.68,0,3.073-0.176,4.185-0.529
			c1.114-0.376,2.118-0.969,3.018-1.781c1.838-1.678,2.758-3.863,2.758-6.56c0-2.716-0.908-4.918-2.726-6.606
			c-1.638-1.508-4.048-2.264-7.234-2.264h-1.684V1389.365z"/>
		<path fill="#333333" d="M852.499,1368.113v24.765h-3.738v-24.765H852.499z"/>
		<path fill="#333333" d="M888.105,1386.863h-10.601l-2.759,6.015h-4.027l12.255-26.319l11.819,26.319h-4.09L888.105,1386.863z
			 M886.581,1383.352l-3.673-8.42l-3.849,8.42H886.581z"/>
		<path fill="#333333" d="M918.452,1371.625v21.253h-3.738v-21.253h-5.692v-3.512h15.108v3.512H918.452z"/>
		<path fill="#333333" d="M940.555,1380.382c0-3.485,1.274-6.479,3.83-8.98c2.547-2.502,5.603-3.753,9.174-3.753
			c3.53,0,6.557,1.263,9.079,3.785c2.535,2.523,3.801,5.556,3.801,9.095c0,3.56-1.271,6.579-3.815,9.061
			c-2.556,2.493-5.642,3.738-9.255,3.738c-3.199,0-6.067-1.108-8.614-3.321C941.954,1387.558,940.555,1384.35,940.555,1380.382z
			 M944.322,1380.433c0,2.737,0.92,4.986,2.758,6.75c1.829,1.767,3.941,2.647,6.336,2.647c2.598,0,4.79-0.899,6.577-2.695
			c1.784-1.817,2.678-4.03,2.678-6.64c0-2.639-0.882-4.854-2.648-6.64c-1.751-1.796-3.923-2.695-6.511-2.695
			c-2.577,0-4.751,0.899-6.526,2.695C945.21,1375.631,944.322,1377.823,944.322,1380.433z"/>
		<path fill="#333333" d="M994.635,1382.324l7.667,10.554h-4.572l-7.071-10.137h-0.673v10.137h-3.738v-24.765h4.379
			c3.273,0,5.636,0.616,7.089,1.844c1.605,1.37,2.407,3.178,2.407,5.421c0,1.755-0.504,3.262-1.508,4.524
			C997.607,1381.166,996.282,1381.973,994.635,1382.324z M989.985,1379.485h1.186c3.538,0,5.308-1.353,5.308-4.057
			c0-2.535-1.722-3.804-5.162-3.804h-1.331V1379.485z"/>
	</g>
</g>
</svg>
