<?xml version="1.0" encoding="utf-8"?>
<!-- Generator: Adobe Illustrator 16.0.4, SVG Export Plug-In . SVG Version: 6.00 Build 0)  -->
<!DOCTYPE svg PUBLIC "-//W3C//DTD SVG 1.1//EN" "http://www.w3.org/Graphics/SVG/1.1/DTD/svg11.dtd">
<svg version="1.1" id="Layer_1" xmlns="http://www.w3.org/2000/svg" xmlns:xlink="http://www.w3.org/1999/xlink" x="0px" y="0px"
	 width="1200px" height="600px" viewBox="0.5 900.5 1200 600" enable-background="new 0.5 900.5 1200 600" xml:space="preserve">
<g>
	<path fill="#FFFFFF" d="M50.5,1259.104c0,19.239,1.338,27.277,5.375,34.441c7.142,12.509,20.114,17.88,45.153,17.88
		c12.521,0,20.454-1.661,35.069-7.81c0.958-0.414,1.604-1.359,1.604-2.402v-23.002c0-1.715-1.656-2.96-3.312-2.482
		c-9.925,2.773-15.605,3.508-25.309,3.508c-13.414,0-16.996-3.577-16.996-16.555v-146.757c0-1.436,1.166-2.596,2.593-2.596h38.643
		c1.431,0,2.589-1.158,2.589-2.594v-24.322c0-1.423-1.148-2.58-2.566-2.589H92.146v-45.979L50.5,1083.824V1259.104z"/>
	<path fill="#FFFFFF" d="M234.397,1168.428c0,1.433-1.157,2.599-2.584,2.599h-33.271c-1.436,0-2.597-1.166-2.597-2.599v-45.694
		c0-10.297,4.479-14.318,17-14.318c17.438,0,21.452,3.582,21.452,18.784V1168.428z M207.128,1076.669
		c-40.696,0-53.659,9.391-53.659,38.002v146.229c0,38.452,12.963,50.077,54.102,50.077c13.422,0,36.227-0.894,41.137-1.325
		c20.128-2.688,26.832-12.525,26.832-39.361v-44.812c0-1.424-1.156-2.58-2.588-2.58h-35.957c-1.426,0-2.597,1.156-2.597,2.58v37.207
		c0,9.841-5.804,14.761-18.325,14.761c-14.762,0-20.127-4.47-20.127-16.545v-53.304c0-1.431,1.161-2.589,2.597-2.589h74.409
		c1.432,0,2.588-1.155,2.588-2.596v-87.74C275.539,1086.956,257.215,1076.669,207.128,1076.669"/>
	<path fill="#FFFFFF" d="M533.25,1081.134c-13.859,0-27.273,2.69-33.09,6.266c-2.09,1.303-3.715,3.22-5.066,6.096
		c-0.977,2.08-3.869,2.01-4.738-0.119c-1.58-3.815-3.736-6.206-7.183-8.211c-8.052-4.471-21.475-6.714-40.696-6.714
		c-37.112,0-50.979,11.634-50.979,43.382v183.427c0,1.433,1.166,2.599,2.593,2.599h36.403c1.426,0,2.592-1.166,2.592-2.599v-176.725
		c0-13.413,5.809-20.118,18.339-20.118c5.362,0,10.729,1.793,14.752,4.912c3.573,3.14,4.921,7.607,4.921,21.021v170.909
		c0,1.433,1.156,2.599,2.588,2.599h36.398c1.439,0,2.598-1.166,2.598-2.599v-173.747c0-13.723,13.131-24.253,26.248-20.221
		c6.523,2.01,10.42,6.74,10.42,13.67v180.298c0,1.433,1.157,2.599,2.588,2.599h36.408c1.433,0,2.599-1.166,2.599-2.599v-180.298
		C590.942,1089.628,580.205,1081.134,533.25,1081.134"/>
	<path fill="#FFFFFF" d="M686.394,1261.79c0,11.28-4.708,16.748-16.095,17.737c-11.342,0.972-21.021-8.172-21.021-19.55v-131.893
		c0-10.729,5.812-16.532,16.995-16.532c13.866,0,20.122,5.354,20.122,16.987L686.394,1261.79L686.394,1261.79z M701.146,1082.479
		c-8.05-2.687-17.438-3.573-43.823-3.573c-36.668,0-50.97,12.065-50.97,42.932v133.25c0,26.828,2.233,37.127,8.938,44.716
		c6.704,8.048,26.386,12.969,52.312,12.969c19.681,0,35.774-2.687,44.28-7.154c8.939-4.911,15.193-19.673,15.193-35.77v-142.655
		C727.08,1100.37,720.826,1089.19,701.146,1082.479"/>
	<path fill="#FFFFFF" d="M923.557,1261.798c0,11.625-6.263,16.537-21.015,16.537c-14.312,0-18.789-4.47-18.789-19.229v-42.474
		c0-16.104,4.479-22.361,15.653-22.361c18.779,0,24.148,4.477,24.148,19.679L923.557,1261.798L923.557,1261.798z M947.248,1085.613
		c-9.831-5.371-21.906-7.606-42.48-7.606c-26.377,0-45.154,3.582-51.42,9.393c-6.705,6.259-10.291,17.438-10.291,30.408v27.81
		c0,1.435,1.166,2.593,2.6,2.593h35.51c1.432,0,2.589-1.158,2.589-2.593v-18.418c0-11.625,7.155-17.442,21.466-17.442
		c13.418,0,18.34,6.259,18.34,25.039v30.943c0,1.847-1.883,3.097-3.597,2.391c-11.051-4.585-19.311-6.052-33.082-6.052
		c-34.425,0-43.822,9.832-43.822,45.607v64.839c0,29.521,14.312,38.901,59.928,38.901c48.294,0,62.152-9.832,62.152-42.923v-131.475
		C965.137,1104.835,961.117,1093.201,947.248,1085.613"/>
	<path fill="#FFFFFF" d="M1061.334,1255.985c0,19.223-3.568,23.699-19.672,23.699c-13.41,0-18.78-5.369-18.78-20.132v-129.675
		c0-16.1,3.577-20.127,17.888-20.127c13.418,0,20.564,6.713,20.564,19.677V1255.985z M1101.678,1008.416h-36.404
		c-1.431,0-2.597,1.157-2.597,2.593v73.184c0,1.979-2.138,3.211-3.86,2.242c-10.439-5.852-19.988-7.979-35.935-7.979
		c-31.306,0-42.481,12.074-42.481,45.166v132.365c0,25.477,5.812,41.58,16.996,47.844c9.393,5.371,22.802,7.154,47.845,7.154
		c45.166,0,59.024-9.842,59.024-41.59v-258.387C1104.266,1009.573,1103.1,1008.416,1101.678,1008.416"/>
	<path fill="#FFFFFF" d="M1137.559,1066.268h-1.322v-3.472c0.291-0.075,0.812-0.154,1.555-0.154c1.766,0,2.588,0.742,2.588,1.855
		C1140.377,1065.751,1139.113,1066.268,1137.559,1066.268 M1140.889,1067.155v-0.146c1.478-0.44,2.52-1.482,2.52-2.812
		c0-1.186-0.521-2.145-1.191-2.659c-0.884-0.519-1.918-0.888-4.215-0.888c-1.986,0-3.541,0.146-4.654,0.369v12.125h2.811v-4.877
		h1.334c1.555,0,2.287,0.59,2.518,1.916c0.371,1.4,0.583,2.516,0.954,2.96h3.03c-0.302-0.444-0.514-1.188-0.885-3.032
		C1142.735,1068.485,1142.072,1067.597,1140.889,1067.155"/>
	<path fill="#FFFFFF" d="M1138.15,1076.47c-5.469,0-9.461-4.288-9.461-9.686c0-5.322,3.992-9.684,9.391-9.684
		c5.396,0,9.311,4.359,9.311,9.753C1147.391,1072.182,1143.479,1076.47,1138.15,1076.47 M1138.08,1054.66
		c-6.943,0-12.49,5.399-12.49,12.124c0,6.873,5.547,12.272,12.49,12.272c7.021,0,12.42-5.399,12.42-12.272
		C1150.5,1060.062,1145.104,1054.66,1138.08,1054.66"/>
	<path fill="#FFFFFF" d="M375.867,1111.659c-13.029-2.938-17.279-3.869-23.259-3.869c-12.88,0-18.868,5.525-18.868,17.945v184.981
		h-42.786v-191.421c0-30.365,14.717-43.709,49.688-43.709c13.812,0,30.637,2.867,47.025,9.814L375.867,1111.659z"/>
	<path fill="#FFFFFF" d="M828.676,1111.659c-13.021-2.938-17.279-3.869-23.259-3.869c-12.88,0-18.868,5.525-18.868,17.945v184.981
		h-42.781v-191.421c0-30.365,14.719-43.709,49.697-43.709c13.799,0,30.626,2.867,47.021,9.814L828.676,1111.659z"/>
	<path fill="#FFFFFF" d="M92.619,1028.199v-19.032c0-1.427-1.157-2.584-2.597-2.584H53.623c-1.427,0-2.588,1.157-2.588,2.584v65.012
		L92.619,1028.199z"/>
	<path fill="#FFFFFF" d="M179.196,1379.171l-2.906-1.123l4.116-8.268l2.199,0.898L179.196,1379.171z M173.415,1379.171l-2.901-1.123
		l4.111-8.268l2.199,0.898L173.415,1379.171z"/>
	<path fill="#FFFFFF" d="M208.541,1376.892l3.3,7.578h-6.767L208.541,1376.892z M197.562,1393.057h3.617l2.495-5.404h9.554
		l2.332,5.404h3.692l-10.657-23.71L197.562,1393.057z"/>
	<polygon fill="#FFFFFF" points="237.418,1370.752 237.418,1393.057 247.352,1393.057 247.352,1389.903 240.793,1389.903 
		240.793,1370.752 	"/>
	<path fill="#FFFFFF" d="M274.656,1366.415c0-0.557,0.199-1.034,0.604-1.44c0.397-0.415,0.888-0.607,1.457-0.607
		c0.57,0,1.062,0.192,1.458,0.607c0.406,0.406,0.604,0.894,0.604,1.468c0,0.572-0.198,1.061-0.604,1.458
		c-0.396,0.404-0.888,0.607-1.458,0.607c-0.578,0-1.068-0.203-1.475-0.607C274.846,1367.483,274.656,1366.989,274.656,1366.415
		 M268.164,1366.415c0-0.557,0.207-1.034,0.604-1.44c0.407-0.415,0.888-0.607,1.448-0.607c0.579,0,1.064,0.192,1.463,0.607
		c0.397,0.406,0.605,0.894,0.605,1.468c0,0.572-0.208,1.061-0.605,1.458c-0.398,0.404-0.875,0.607-1.444,0.607
		c-0.579,0-1.069-0.203-1.476-0.607C268.362,1367.483,268.164,1366.989,268.164,1366.415 M268.614,1370.752v13.436
		c0,1.919,0.317,3.312,0.94,4.205c0.932,1.28,2.244,1.928,3.944,1.928s3.021-0.646,3.962-1.928c0.623-0.854,0.932-2.253,0.932-4.205
		v-13.436h3.375v14.363c0,2.35-0.742,4.284-2.199,5.804c-1.648,1.695-3.671,2.544-6.069,2.544c-2.397,0-4.412-0.849-6.051-2.544
		c-1.466-1.52-2.2-3.454-2.2-5.804v-14.363H268.614z"/>
	<polygon fill="#FFFFFF" points="314.067,1386.413 306.413,1369.073 301.718,1393.057 305.203,1393.057 307.597,1379.577 
		314.01,1394.081 320.613,1379.595 322.77,1393.057 326.223,1393.057 322.009,1369.073 	"/>
	<path fill="#FFFFFF" d="M349.702,1393.065h-3.366v-22.306h3.366V1393.065z M345.838,1366.317c0-0.594,0.211-1.098,0.635-1.521
		c0.451-0.424,0.97-0.636,1.547-0.636c0.598,0,1.113,0.212,1.527,0.636c0.436,0.424,0.654,0.938,0.654,1.537
		c0,0.618-0.221,1.131-0.654,1.537c-0.414,0.424-0.932,0.645-1.527,0.645c-0.604,0-1.12-0.221-1.547-0.645
		C346.049,1367.431,345.838,1366.9,345.838,1366.317"/>
	<polygon fill="#FFFFFF" points="370.443,1393.057 373.817,1393.057 373.817,1377.448 390.08,1394.417 390.08,1370.752 
		386.715,1370.752 386.715,1386.255 370.443,1369.241 	"/>
	<polygon fill="#FFFFFF" points="422.129,1370.752 417.018,1379.674 411.908,1370.752 408.034,1370.752 415.326,1383.419 
		415.326,1393.057 418.684,1393.057 418.684,1383.419 425.993,1370.752 	"/>
	<path fill="#FFFFFF" d="M447.326,1370.752v13.436c0,1.919,0.316,3.312,0.939,4.205c0.934,1.28,2.243,1.928,3.943,1.928
		c1.701,0,3.021-0.646,3.962-1.928c0.623-0.854,0.935-2.253,0.935-4.205v-13.436h3.363v14.363c0,2.35-0.731,4.284-2.189,5.804
		c-1.646,1.695-3.67,2.544-6.068,2.544s-4.416-0.849-6.051-2.544c-1.467-1.52-2.199-3.454-2.199-5.804v-14.363H447.326z"/>
	<polygon fill="#FFFFFF" points="492.779,1386.413 485.125,1369.073 480.43,1393.057 483.91,1393.057 486.309,1379.577 
		492.722,1394.081 499.324,1379.595 501.48,1393.057 504.934,1393.057 500.721,1369.073 	"/>
	<path fill="#FFFFFF" d="M552.927,1380.875h1.259c3.094,0,4.64-1.192,4.64-3.56c0-2.308-1.601-3.454-4.783-3.454h-1.113
		L552.927,1380.875L552.927,1380.875z M552.927,1384.002v9.055h-3.364v-22.305h3.809c1.872,0,3.285,0.132,4.234,0.389
		c0.969,0.256,1.818,0.751,2.549,1.478c1.275,1.254,1.922,2.826,1.922,4.732c0,2.051-0.689,3.666-2.056,4.858
		c-1.367,1.192-3.211,1.793-5.538,1.793H552.927L552.927,1384.002z"/>
	<path fill="#FFFFFF" d="M587.718,1376.892l3.311,7.578h-6.775L587.718,1376.892z M576.733,1393.057h3.631l2.484-5.404h9.556
		l2.341,5.404h3.684l-10.655-23.71L576.733,1393.057z"/>
	<polygon fill="#FFFFFF" points="616.6,1393.057 619.965,1393.057 619.965,1377.448 636.236,1394.417 636.236,1370.752 
		632.861,1370.752 632.861,1386.255 616.6,1369.241 	"/>
	<polygon fill="#FFFFFF" points="656.969,1370.752 656.969,1393.057 669.283,1393.057 669.283,1389.903 660.344,1389.903 
		660.344,1382.438 669.026,1382.438 669.026,1379.276 660.344,1379.276 660.344,1373.914 669.283,1373.914 669.283,1370.752 	"/>
	<polygon fill="#FFFFFF" points="689.088,1370.752 689.088,1393.057 699.017,1393.057 699.017,1389.903 692.453,1389.903 
		692.453,1370.752 	"/>
	<path fill="#FFFFFF" d="M745.48,1380.989h1.067c3.183,0,4.788-1.22,4.788-3.647c0-2.277-1.555-3.419-4.664-3.419h-1.191V1380.989z
		 M749.668,1383.552l6.908,9.505h-4.117l-6.368-9.134h-0.608v9.134h-3.374v-22.305h3.958c2.933,0,5.068,0.556,6.387,1.661
		c1.431,1.236,2.154,2.861,2.154,4.885c0,1.581-0.449,2.934-1.353,4.072C752.345,1382.501,751.152,1383.233,749.668,1383.552"/>
	<path fill="#FFFFFF" d="M783.739,1376.892l3.304,7.578h-6.775L783.739,1376.892z M772.76,1393.057h3.621l2.491-5.404h9.549
		l2.341,5.404h3.686l-10.652-23.71L772.76,1393.057z"/>
	<path fill="#FFFFFF" d="M815.982,1389.894h1.519c1.511,0,2.774-0.156,3.772-0.477c1.007-0.336,1.906-0.875,2.721-1.607
		c1.65-1.511,2.48-3.479,2.48-5.898c0-2.457-0.82-4.438-2.455-5.955c-1.477-1.359-3.647-2.031-6.521-2.031h-1.521v15.97
		L815.982,1389.894L815.982,1389.894z M812.616,1393.057v-22.305h4.688c2.244,0,4.013,0.221,5.311,0.662
		c1.404,0.433,2.668,1.175,3.808,2.218c2.297,2.094,3.445,4.857,3.445,8.277c0,3.427-1.192,6.201-3.595,8.319
		c-1.211,1.062-2.465,1.804-3.781,2.209c-1.236,0.414-2.986,0.617-5.247,0.617L812.616,1393.057L812.616,1393.057z"/>
	<polygon fill="#FFFFFF" points="859.673,1370.752 854.566,1379.674 849.461,1370.752 845.592,1370.752 852.871,1383.419 
		852.871,1393.057 856.236,1393.057 856.236,1383.419 863.551,1370.752 	"/>
	<path fill="#FFFFFF" d="M887.887,1376.892l3.312,7.578h-6.766L887.887,1376.892z M876.916,1393.057h3.621l2.492-5.404h9.549
		l2.34,5.404h3.693l-10.662-23.71L876.916,1393.057z"/>
	<polygon fill="#FFFFFF" points="913.195,1370.752 913.195,1373.914 918.328,1373.914 918.328,1393.057 921.702,1393.057 
		921.702,1373.914 926.808,1373.914 926.808,1370.752 	"/>
	<path fill="#FFFFFF" d="M956.25,1366.415c0-0.557,0.212-1.034,0.609-1.44c0.404-0.415,0.893-0.607,1.447-0.607
		c0.574,0,1.062,0.192,1.467,0.607c0.406,0.406,0.609,0.894,0.609,1.468c0,0.572-0.203,1.061-0.609,1.458
		c-0.405,0.404-0.893,0.607-1.467,0.607c-0.564,0-1.061-0.203-1.458-0.607C956.444,1367.483,956.25,1366.989,956.25,1366.415
		 M949.766,1366.415c0-0.557,0.195-1.034,0.604-1.44c0.405-0.415,0.893-0.607,1.448-0.607c0.581,0,1.06,0.192,1.456,0.607
		c0.406,0.406,0.609,0.894,0.609,1.468c0,0.572-0.203,1.061-0.609,1.458c-0.396,0.404-0.875,0.607-1.447,0.607
		c-0.574,0-1.068-0.203-1.477-0.607C949.961,1367.483,949.766,1366.989,949.766,1366.415 M946.771,1381.847
		c0,2.466,0.83,4.496,2.48,6.078c1.652,1.6,3.551,2.396,5.715,2.396c2.344,0,4.312-0.813,5.919-2.438
		c1.616-1.634,2.423-3.621,2.423-5.971c0-2.386-0.797-4.373-2.396-5.98c-1.581-1.626-3.533-2.43-5.856-2.43
		c-2.321,0-4.294,0.804-5.884,2.43C947.576,1377.527,946.771,1379.497,946.771,1381.847 M943.379,1381.803
		c0-3.136,1.148-5.83,3.455-8.092c2.287-2.253,5.043-3.374,8.259-3.374c3.183,0,5.909,1.131,8.183,3.41
		c2.285,2.27,3.427,4.999,3.427,8.188c0,3.207-1.148,5.93-3.438,8.162c-2.312,2.244-5.088,3.366-8.348,3.366
		c-2.871,0-5.459-0.989-7.747-2.995C944.634,1388.269,943.379,1385.38,943.379,1381.803"/>
	<path fill="#FFFFFF" d="M989.686,1380.989h1.068c3.189,0,4.787-1.22,4.787-3.647c0-2.277-1.555-3.419-4.664-3.419h-1.191V1380.989z
		 M993.872,1383.552l6.908,9.505h-4.116l-6.369-9.134h-0.609v9.134h-3.375v-22.305h3.957c2.941,0,5.07,0.556,6.389,1.661
		c1.438,1.236,2.154,2.861,2.154,4.885c0,1.581-0.449,2.934-1.352,4.072C996.549,1382.501,995.355,1383.233,993.872,1383.552"/>
	<path fill="#FFFFFF" d="M1027.73,1369.78l2.881,1.131l-4.117,8.26l-2.19-0.901L1027.73,1369.78z M1021.945,1369.78l2.889,1.131
		l-4.117,8.26l-2.199-0.901L1021.945,1369.78z"/>
</g>
</svg>
